\relax 
\providecommand\hyper@newdestlabel[2]{}
\catcode `"\active 
\providecommand\HyperFirstAtBeginDocument{\AtBeginDocument}
\HyperFirstAtBeginDocument{\ifx\hyper@anchor\@undefined
\global\let\oldcontentsline\contentsline
\gdef\contentsline#1#2#3#4{\oldcontentsline{#1}{#2}{#3}}
\global\let\oldnewlabel\newlabel
\gdef\newlabel#1#2{\newlabelxx{#1}#2}
\gdef\newlabelxx#1#2#3#4#5#6{\oldnewlabel{#1}{{#2}{#3}}}
\AtEndDocument{\ifx\hyper@anchor\@undefined
\let\contentsline\oldcontentsline
\let\newlabel\oldnewlabel
\fi}
\fi}
\global\let\hyper@last\relax 
\gdef\HyperFirstAtBeginDocument#1{#1}
\providecommand\HyField@AuxAddToFields[1]{}
\providecommand\HyField@AuxAddToCoFields[2]{}
\babel@aux{polish}{}
\@writefile{toc}{\contentsline {chapter}{Spis tre\IeC {\'s}ci}{4}{chapter*.1}}
\@input{Rozdzial1.aux}
\@input{Rozdzial2.aux}
\@input{Rozdzial3.aux}
\@input{Rozdzial4.aux}
\citation{MassachusettsRoadsDataset}
\@writefile{toc}{\contentsline {chapter}{Spis rysunk\IeC {\'o}w}{28}{chapter*.22}}
\citation{Comparasion_INRIA}
\@writefile{toc}{\contentsline {chapter}{Spis tabel}{29}{chapter*.23}}
\bibcite{Shivaprakash}{1}
\bibcite{EO}{2}
\bibcite{Morrison}{3}
\bibcite{Dehqanzada}{4}
\bibcite{Rosenblatt F}{5}
\bibcite{Morton}{6}
\bibcite{Bishop}{7}
\bibcite{Hebb D}{8}
\bibcite{Widrow B}{9}
\bibcite{Minsky M}{10}
\bibcite{Kohonen T}{11}
\bibcite{Hopfield J}{12}
\bibcite{D.Rumelhart}{13}
\bibcite{B WU}{14}
\bibcite{Lauzon}{15}
\bibcite{Dai}{16}
\bibcite{Weiss}{17}
\bibcite{Albawi}{18}
\bibcite{Oshea}{19}
\bibcite{PyDense}{20}
\bibcite{CRF-CNN}{21}
\bibcite{CRF}{22}
\bibcite{ImageNet}{23}
\bibcite{ResNetImg}{24}
\bibcite{AlexNet}{25}
\bibcite{VGG}{26}
\bibcite{GoogLeNet}{27}
\bibcite{ResNet}{28}
\bibcite{FCN}{29}
\bibcite{unet}{30}
\bibcite{DeepLab}{31}
\bibcite{aerialDeep}{32}
\bibcite{Posdam}{33}
\bibcite{SatelliteDeep}{34}
\bibcite{MassachusettsRoadsDataset}{35}
\bibcite{AerialDeepLab}{36}
\bibcite{Comparasion_INRIA}{37}
\bibcite{INRIA}{38}
