\relax 
\providecommand\hyper@newdestlabel[2]{}
\@writefile{toc}{\contentsline {chapter}{\numberline {4}Implementacja}{22}{chapter.4}}
\@writefile{lof}{\addvspace {10\p@ }}
\@writefile{lot}{\addvspace {10\p@ }}
\@writefile{lof}{\contentsline {figure}{\numberline {4.1}{\ignorespaces Schemat realizacji projektu.\relax }}{22}{figure.caption.19}}
\newlabel{scheme40}{{4.1}{22}{Schemat realizacji projektu.\relax }{figure.caption.19}{}}
\@writefile{toc}{\contentsline {section}{\numberline {4.1}Narz\IeC {\k e}dzia}{22}{section.4.1}}
\newlabel{NA}{{4.1}{22}{Narzędzia}{section.4.1}{}}
\citation{PyDense}
\citation{INRIA}
\@writefile{toc}{\contentsline {section}{\numberline {4.2}Przygotowanie danych}{23}{section.4.2}}
\newlabel{chap:INRIA}{{4.2}{23}{Przygotowanie danych}{section.4.2}{}}
\@writefile{toc}{\contentsline {subsection}{\numberline {4.2.1}Dataset INRIA}{23}{subsection.4.2.1}}
\@writefile{toc}{\contentsline {subsection}{\numberline {4.2.2}Przygotowanie zbioru treningowego}{23}{subsection.4.2.2}}
\@writefile{lof}{\contentsline {figure}{\numberline {4.2}{\ignorespaces Przyk\IeC {\l }ady zdj\IeC {\k e}\IeC {\'c} datasetu.\relax }}{24}{figure.caption.20}}
\newlabel{fig:przyk}{{4.2}{24}{Przykłady zdjęć datasetu.\relax }{figure.caption.20}{}}
\@writefile{toc}{\contentsline {section}{\numberline {4.3}Detekcja budynk\IeC {\'o}w}{24}{section.4.3}}
\@writefile{toc}{\contentsline {subsection}{\numberline {4.3.1}Model sieci}{24}{subsection.4.3.1}}
\@writefile{toc}{\contentsline {subsection}{\numberline {4.3.2}Trening sieci}{25}{subsection.4.3.2}}
\newlabel{eq:binray_crossentropy}{{4.1}{25}{Trening sieci}{equation.4.3.1}{}}
\@writefile{toc}{\contentsline {section}{\numberline {4.4}Przetwarzanie ko\IeC {\'n}cowe}{25}{section.4.4}}
\newlabel{eq:CRF1}{{4.2}{26}{Przetwarzanie końcowe}{equation.4.4.2}{}}
\newlabel{eq:CRF2}{{4.3}{26}{Przetwarzanie końcowe}{equation.4.4.3}{}}
\newlabel{eq:CRF3}{{4.4}{26}{Przetwarzanie końcowe}{equation.4.4.4}{}}
\newlabel{eq:CRF3}{{4.5}{26}{Przetwarzanie końcowe}{equation.4.4.5}{}}
\newlabel{eq:CRF4}{{4.6}{26}{Przetwarzanie końcowe}{equation.4.4.6}{}}
\@writefile{toc}{\contentsline {section}{\numberline {4.5}Dynamiczne przetwarzanie mapy}{26}{section.4.5}}
\newlabel{DP}{{4.5}{26}{Dynamiczne przetwarzanie mapy}{section.4.5}{}}
\@writefile{lof}{\contentsline {figure}{\numberline {4.3}{\ignorespaces Schemat dzia\IeC {\l }ania aplikacji projektowej.\relax }}{27}{figure.caption.21}}
\newlabel{scheme41}{{4.3}{27}{Schemat działania aplikacji projektowej.\relax }{figure.caption.21}{}}
\@setckpt{Rozdzial4}{
\setcounter{page}{28}
\setcounter{equation}{6}
\setcounter{enumi}{0}
\setcounter{enumii}{0}
\setcounter{enumiii}{0}
\setcounter{enumiv}{0}
\setcounter{footnote}{0}
\setcounter{mpfootnote}{0}
\setcounter{part}{0}
\setcounter{chapter}{4}
\setcounter{section}{5}
\setcounter{subsection}{0}
\setcounter{subsubsection}{0}
\setcounter{paragraph}{0}
\setcounter{subparagraph}{0}
\setcounter{figure}{3}
\setcounter{table}{0}
\setcounter{AM@survey}{0}
\setcounter{@pps}{0}
\setcounter{@ppsavesec}{0}
\setcounter{@ppsaveapp}{0}
\setcounter{parentequation}{0}
\setcounter{Item}{0}
\setcounter{Hfootnote}{0}
\setcounter{bookmark@seq@number}{48}
\setcounter{lstnumber}{1}
\setcounter{ContinuedFloat}{0}
\setcounter{section@level}{0}
\setcounter{lstlisting}{0}
}
