\relax 
\providecommand\hyper@newdestlabel[2]{}
\citation{ImageNet}
\citation{AlexNet}
\citation{VGG}
\citation{GoogLeNet}
\citation{ResNet}
\@writefile{toc}{\contentsline {chapter}{\numberline {3}Przegl\IeC {\k a}d podobnych rozwi\IeC {\k a}za\IeC {\'n}}{15}{chapter.3}}
\@writefile{lof}{\addvspace {10\p@ }}
\@writefile{lot}{\addvspace {10\p@ }}
\@writefile{toc}{\contentsline {section}{\numberline {3.1}Systemy klasyfikowania obraz\IeC {\'o}w}{15}{section.3.1}}
\newlabel{class}{{3.1}{15}{Systemy klasyfikowania obrazów}{section.3.1}{}}
\@writefile{toc}{\contentsline {subsection}{\numberline {3.1.1}AlexNet}{15}{subsection.3.1.1}}
\@writefile{toc}{\contentsline {subsection}{\numberline {3.1.2}VGG-16}{15}{subsection.3.1.2}}
\@writefile{lof}{\contentsline {figure}{\numberline {3.1}{\ignorespaces Schemat architektury VGG.\relax }}{15}{figure.caption.10}}
\newlabel{fig:VGG}{{3.1}{15}{Schemat architektury VGG.\relax }{figure.caption.10}{}}
\@writefile{toc}{\contentsline {subsection}{\numberline {3.1.3}GoogLeNet}{15}{subsection.3.1.3}}
\@writefile{toc}{\contentsline {subsection}{\numberline {3.1.4}ResNet}{15}{subsection.3.1.4}}
\newlabel{chap:ResNet}{{3.1.4}{15}{ResNet}{subsection.3.1.4}{}}
\citation{ResNetImg}
\citation{ResNetImg}
\@writefile{lof}{\contentsline {figure}{\numberline {3.2}{\ignorespaces Schemat modu\IeC {\l }u incepcji.\relax }}{16}{figure.caption.11}}
\newlabel{fig:inception_module}{{3.2}{16}{Schemat modułu incepcji.\relax }{figure.caption.11}{}}
\@writefile{lof}{\contentsline {figure}{\numberline {3.3}{\ignorespaces Schemat residual block.}}{16}{figure.caption.12}}
\newlabel{fig:residual_block}{{3.3}{16}{Schemat residual block}{figure.caption.12}{}}
\@writefile{toc}{\contentsline {subsection}{\numberline {3.1.5}Por\IeC {\'o}wnanie modeli sieci}{16}{subsection.3.1.5}}
\citation{FCN}
\citation{FCN}
\citation{FCN}
\@writefile{lot}{\contentsline {table}{\numberline {3.1}{\ignorespaces Por\IeC {\'o}wnanie modeli sieci.\relax }}{17}{table.caption.13}}
\newlabel{tab:porownanie_sieci}{{3.1}{17}{Porównanie modeli sieci.\relax }{table.caption.13}{}}
\@writefile{toc}{\contentsline {section}{\numberline {3.2}Systemy segmentacji semantycznej}{17}{section.3.2}}
\@writefile{toc}{\contentsline {subsection}{\numberline {3.2.1}Fully Convolutional Network}{17}{subsection.3.2.1}}
\newlabel{chap:Fully Convolutional Network}{{3.2.1}{17}{Fully Convolutional Network}{subsection.3.2.1}{}}
\@writefile{lof}{\contentsline {figure}{\numberline {3.4}{\ignorespaces Zamiana warstwy w pe\IeC {\l }ni po\IeC {\l }\IeC {\k a}czonej na warstwy konwolucyjne.}}{17}{figure.caption.14}}
\newlabel{fig:FCN}{{3.4}{17}{Zamiana warstwy w pełni połączonej na warstwy konwolucyjne}{figure.caption.14}{}}
\citation{FCN}
\citation{FCN}
\citation{unet}
\citation{unet}
\citation{unet}
\citation{DeepLab}
\@writefile{lof}{\contentsline {figure}{\numberline {3.5}{\ignorespaces Schemat modeli sieci FCN-32s, FCN-16s oraz FCN-8s z wykorzystaniem upsumpling.}}{18}{figure.caption.15}}
\newlabel{fig:FCN_upsumpling}{{3.5}{18}{Schemat modeli sieci FCN-32s, FCN-16s oraz FCN-8s z wykorzystaniem upsumpling}{figure.caption.15}{}}
\@writefile{toc}{\contentsline {subsection}{\numberline {3.2.2}U-Net}{18}{subsection.3.2.2}}
\@writefile{lof}{\contentsline {figure}{\numberline {3.6}{\ignorespaces Schemat architektury U-Net.}}{18}{figure.caption.16}}
\newlabel{fig:unet}{{3.6}{18}{Schemat architektury U-Net}{figure.caption.16}{}}
\citation{SatelliteDeep}
\citation{MassachusettsRoadsDataset}
\@writefile{toc}{\contentsline {subsection}{\numberline {3.2.3}DeepLab}{19}{subsection.3.2.3}}
\newlabel{dl}{{3.2.3}{19}{DeepLab}{subsection.3.2.3}{}}
\newlabel{eq:atrous}{{3.1}{19}{DeepLab}{equation.3.2.1}{}}
\@writefile{toc}{\contentsline {section}{\numberline {3.3}Systemy segmentacji obraz\IeC {\'o}w lotniczych i satelitarnych}{19}{section.3.3}}
\@writefile{toc}{\contentsline {subsection}{\numberline {3.3.1}Wykrywanie drogi przy u\IeC {\.z}yciu FCN}{19}{subsection.3.3.1}}
\citation{MassachusettsRoadsDataset}
\citation{MassachusettsRoadsDataset}
\citation{aerialDeep}
\citation{Posdam}
\citation{AerialDeepLab}
\@writefile{lof}{\contentsline {figure}{\numberline {3.7}{\ignorespaces Przyk\IeC {\l }ad zdj\IeC {\k e}cia ze zbioru Massachusetts Roads Dataset \cite  {MassachusettsRoadsDataset}.\relax }}{20}{figure.caption.17}}
\newlabel{fig:mass}{{3.7}{20}{Przykład zdjęcia ze zbioru Massachusetts Roads Dataset \cite {MassachusettsRoadsDataset}.\relax }{figure.caption.17}{}}
\@writefile{toc}{\contentsline {subsection}{\numberline {3.3.2}Segmentacja obrazu wysokiej rozdzielczo\IeC {\'s}ci FCN}{20}{subsection.3.3.2}}
\citation{Comparasion_INRIA}
\citation{Comparasion_INRIA}
\@writefile{lot}{\contentsline {table}{\numberline {3.2}{\ignorespaces Por\IeC {\'o}wnanie sieci przetrenowanych na datasecie INRIA \cite  {Comparasion_INRIA}.\relax }}{21}{table.caption.18}}
\newlabel{tab:porownanie_sieci_inria}{{3.2}{21}{Porównanie sieci przetrenowanych na datasecie INRIA \cite {Comparasion_INRIA}.\relax }{table.caption.18}{}}
\@writefile{toc}{\contentsline {subsection}{\numberline {3.3.3}Segmentacja obrazu wysokiej rozdzielczo\IeC {\'s}ci DeepLab}{21}{subsection.3.3.3}}
\@writefile{toc}{\contentsline {subsection}{\numberline {3.3.4}Segmentacja budynk\IeC {\'o}w}{21}{subsection.3.3.4}}
\@setckpt{Rozdzial3}{
\setcounter{page}{22}
\setcounter{equation}{1}
\setcounter{enumi}{0}
\setcounter{enumii}{0}
\setcounter{enumiii}{0}
\setcounter{enumiv}{0}
\setcounter{footnote}{0}
\setcounter{mpfootnote}{0}
\setcounter{part}{0}
\setcounter{chapter}{3}
\setcounter{section}{3}
\setcounter{subsection}{4}
\setcounter{subsubsection}{0}
\setcounter{paragraph}{0}
\setcounter{subparagraph}{0}
\setcounter{figure}{7}
\setcounter{table}{2}
\setcounter{AM@survey}{0}
\setcounter{@pps}{0}
\setcounter{@ppsavesec}{0}
\setcounter{@ppsaveapp}{0}
\setcounter{parentequation}{0}
\setcounter{Item}{0}
\setcounter{Hfootnote}{0}
\setcounter{bookmark@seq@number}{38}
\setcounter{lstnumber}{1}
\setcounter{ContinuedFloat}{0}
\setcounter{section@level}{0}
\setcounter{lstlisting}{0}
}
