\relax 
\providecommand\hyper@newdestlabel[2]{}
\citation{Morrison}
\citation{EO}
\citation{Dehqanzada}
\@writefile{toc}{\contentsline {chapter}{\numberline {2}Wprowadzenie}{6}{chapter.2}}
\@writefile{lof}{\addvspace {10\p@ }}
\@writefile{lot}{\addvspace {10\p@ }}
\@writefile{toc}{\contentsline {section}{\numberline {2.1}Obserwacja Ziemi}{6}{section.2.1}}
\newlabel{EO}{{2.1}{6}{Obserwacja Ziemi}{section.2.1}{}}
\@writefile{toc}{\contentsline {subsection}{\numberline {2.1.1}Rodzaje wykorzystywanych czujnik\IeC {\'o}w}{6}{subsection.2.1.1}}
\citation{EO}
\citation{Morrison}
\@writefile{toc}{\contentsline {subsection}{\numberline {2.1.2}Orbity}{7}{subsection.2.1.2}}
\@writefile{lof}{\contentsline {figure}{\numberline {2.1}{\ignorespaces System orbit. Na zielono niska - orbita ziemska (LEO), na \IeC {\.z}\IeC {\'o}\IeC {\l }to - \IeC {\'s}rednia orbita ziemska (MEO), na czerwono - geosynchroniczna orbita ziemska (GEO).\relax }}{7}{figure.caption.2}}
\providecommand*\caption@xref[2]{\@setref\relax\@undefined{#1}}
\newlabel{scheme3}{{2.1}{7}{System orbit. Na zielono niska - orbita ziemska (LEO), na żółto - średnia orbita ziemska (MEO), na czerwono - geosynchroniczna orbita ziemska (GEO).\relax }{figure.caption.2}{}}
\@writefile{toc}{\contentsline {section}{\numberline {2.2}Uczenie maszynowe}{8}{section.2.2}}
\newlabel{ML}{{2.2}{8}{Uczenie maszynowe}{section.2.2}{}}
\@writefile{toc}{\contentsline {subsection}{\numberline {2.2.1}Uczenie nadzorowane}{8}{subsection.2.2.1}}
\newlabel{SL}{{2.2.1}{8}{Uczenie nadzorowane}{subsection.2.2.1}{}}
\@writefile{lof}{\contentsline {figure}{\numberline {2.2}{\ignorespaces Schemat dzia\IeC {\l }ania algorytmu uczenia si\IeC {\k e} nienadzorowanego.\relax }}{8}{figure.caption.3}}
\newlabel{scheme4}{{2.2}{8}{Schemat działania algorytmu uczenia się nienadzorowanego.\relax }{figure.caption.3}{}}
\@writefile{toc}{\contentsline {subsection}{\numberline {2.2.2}Uczenie bez nadzoru}{8}{subsection.2.2.2}}
\newlabel{USL}{{2.2.2}{8}{Uczenie bez nadzoru}{subsection.2.2.2}{}}
\@writefile{toc}{\contentsline {subsection}{\numberline {2.2.3}Uczenie ze wzmocnieniem}{8}{subsection.2.2.3}}
\newlabel{RL}{{2.2.3}{8}{Uczenie ze wzmocnieniem}{subsection.2.2.3}{}}
\citation{Morton}
\citation{Hebb D}
\citation{Rosenblatt F}
\citation{Widrow B}
\citation{Minsky M}
\citation{Kohonen T}
\citation{Hopfield J}
\citation{D.Rumelhart}
\@writefile{lof}{\contentsline {figure}{\numberline {2.3}{\ignorespaces Schemat dzia\IeC {\l }ania algorytmu uczenia si\IeC {\k e} nadzorowanego.\relax }}{9}{figure.caption.4}}
\newlabel{scheme5}{{2.3}{9}{Schemat działania algorytmu uczenia się nadzorowanego.\relax }{figure.caption.4}{}}
\@writefile{toc}{\contentsline {section}{\numberline {2.3}Sieci neuronowe}{9}{section.2.3}}
\newlabel{nananan}{{2.3}{9}{Sieci neuronowe}{section.2.3}{}}
\@writefile{toc}{\contentsline {subsection}{\numberline {2.3.1}Historia sieci neuronowych}{9}{subsection.2.3.1}}
\newlabel{nanana}{{2.3.1}{9}{Historia sieci neuronowych}{subsection.2.3.1}{}}
\citation{B WU}
\@writefile{toc}{\contentsline {subsection}{\numberline {2.3.2}Budowa neuronu}{10}{subsection.2.3.2}}
\newlabel{eq:eq1}{{2.1}{10}{Budowa neuronu}{equation.2.3.1}{}}
\@writefile{lof}{\contentsline {figure}{\numberline {2.4}{\ignorespaces Schemat budowy sztucznego neuronu\relax }}{10}{figure.caption.5}}
\newlabel{scheme2}{{2.4}{10}{Schemat budowy sztucznego neuronu\relax }{figure.caption.5}{}}
\citation{Weiss}
\@writefile{toc}{\contentsline {subsection}{\numberline {2.3.3}Wielowarstwowe sieci neuronowe}{11}{subsection.2.3.3}}
\newlabel{WSN}{{2.3.3}{11}{Wielowarstwowe sieci neuronowe}{subsection.2.3.3}{}}
\@writefile{lof}{\contentsline {figure}{\numberline {2.5}{\ignorespaces Schemat architektury wielowarstwowej sieci neuronowej.\relax }}{11}{figure.caption.6}}
\newlabel{scheme1}{{2.5}{11}{Schemat architektury wielowarstwowej sieci neuronowej.\relax }{figure.caption.6}{}}
\@writefile{lof}{\contentsline {figure}{\numberline {2.6}{\ignorespaces Schemat dzia\IeC {\l }ania uczenia ze wzmocnieniem.\relax }}{11}{figure.caption.7}}
\newlabel{scheme6}{{2.6}{11}{Schemat działania uczenia ze wzmocnieniem.\relax }{figure.caption.7}{}}
\citation{Dai}
\citation{Lauzon}
\@writefile{toc}{\contentsline {section}{\numberline {2.4}Uczenie transferowe}{12}{section.2.4}}
\newlabel{TL}{{2.4}{12}{Uczenie transferowe}{section.2.4}{}}
\@writefile{toc}{\contentsline {subsection}{\numberline {2.4.1}Uczenie wielozadaniowe}{12}{subsection.2.4.1}}
\newlabel{MLL}{{2.4.1}{12}{Uczenie wielozadaniowe}{subsection.2.4.1}{}}
\@writefile{lof}{\contentsline {figure}{\numberline {2.7}{\ignorespaces Schemat architektury uczenia wielozadaniowego.\relax }}{12}{figure.caption.8}}
\newlabel{scheme8}{{2.7}{12}{Schemat architektury uczenia wielozadaniowego.\relax }{figure.caption.8}{}}
\citation{Albawi}
\citation{Oshea}
\@writefile{toc}{\contentsline {section}{\numberline {2.5}Uczenie g\IeC {\l }\IeC {\k e}bokie}{13}{section.2.5}}
\newlabel{DL}{{2.5}{13}{Uczenie głębokie}{section.2.5}{}}
\@writefile{toc}{\contentsline {section}{\numberline {2.6}Splotowe sieci neuronowe}{13}{section.2.6}}
\newlabel{CNN}{{2.6}{13}{Splotowe sieci neuronowe}{section.2.6}{}}
\@writefile{lof}{\contentsline {figure}{\numberline {2.8}{\ignorespaces Przyk\IeC {\l }adowa architektura splotowej sieci neuronowej.\relax }}{13}{figure.caption.9}}
\newlabel{scheme7}{{2.8}{13}{Przykładowa architektura splotowej sieci neuronowej.\relax }{figure.caption.9}{}}
\citation{PyDense}
\citation{CRF-CNN}
\@writefile{toc}{\contentsline {section}{\numberline {2.7}Warunkowe pola losowe}{14}{section.2.7}}
\newlabel{CRF}{{2.7}{14}{Warunkowe pola losowe}{section.2.7}{}}
\@writefile{toc}{\contentsline {section}{\numberline {2.8}Hybrydowe po\IeC {\l }\IeC {\k a}czenie CRF-CNN}{14}{section.2.8}}
\newlabel{CRF-CNN}{{2.8}{14}{Hybrydowe połączenie CRF-CNN}{section.2.8}{}}
\@setckpt{Rozdzial2}{
\setcounter{page}{15}
\setcounter{equation}{1}
\setcounter{enumi}{0}
\setcounter{enumii}{0}
\setcounter{enumiii}{0}
\setcounter{enumiv}{0}
\setcounter{footnote}{0}
\setcounter{mpfootnote}{0}
\setcounter{part}{0}
\setcounter{chapter}{2}
\setcounter{section}{8}
\setcounter{subsection}{0}
\setcounter{subsubsection}{0}
\setcounter{paragraph}{0}
\setcounter{subparagraph}{0}
\setcounter{figure}{8}
\setcounter{table}{0}
\setcounter{AM@survey}{0}
\setcounter{@pps}{0}
\setcounter{@ppsavesec}{0}
\setcounter{@ppsaveapp}{0}
\setcounter{parentequation}{0}
\setcounter{Item}{0}
\setcounter{Hfootnote}{0}
\setcounter{bookmark@seq@number}{22}
\setcounter{lstnumber}{1}
\setcounter{ContinuedFloat}{0}
\setcounter{section@level}{0}
\setcounter{lstlisting}{0}
}
